%YAML 1.1
%TAG !u! tag:unity3d.com,2011:
--- !u!78 &1
TagManager:
  serializedVersion: 2
  tags: []
  layers:
  - Default
  - TransparentFX
  - Ignore Raycast
  - 
  - Water
  - UI
  - Player
  - Ground
  - Enemies
  - Damage
  - Collectables
  - Traps
  - PlayerSpecial
  - 
  - 
  - 
  - 
  - 
  - 
  - 
  - 
  - 
  - 
  - 
  - 
  - 
  - 
  - 
  - 
  - 
  - 
  - 
  m_SortingLayers:
  - name: Background
    uniqueID: 362166057
    locked: 0
  - name: Default
    uniqueID: 0
    locked: 0
  - name: Props
    uniqueID: 1307809121
    locked: 0
  - name: Ground
    uniqueID: 4002140079
    locked: 0
  - name: Traps
    uniqueID: 4132359885
    locked: 0
  - name: Enemies
    uniqueID: 1347033593
    locked: 0
  - name: Collectables
    uniqueID: 135121377
    locked: 0
  - name: Player
    uniqueID: 2911872945
    locked: 0
  - name: PlayerSpecials
    uniqueID: 2591503499
    locked: 0
